simulation/qsim/CombDigitalDevices.msim.vcd
$comment
	File created using the following command:
		vcd file CombDigitalDevices.msim.vcd -direction
$end
$date
	Wed Apr 10 01:10:24 2019
$end
$version
	ModelSim Version 10.5b
$end
$timescale
	1ps
$end

$scope module Main_vlg_vec_tst $end
$var reg 8 ! CD_inData [7:0] $end
$var reg 3 " DC_inData [2:0] $end
$var reg 1 # DMX_inData $end
$var reg 8 $ MUX_inData [7:0] $end
$var reg 2 % a [1:0] $end
$var reg 3 & addr [2:0] $end
$var reg 2 ' b [1:0] $end
$var wire 1 ( CD_outData [2] $end
$var wire 1 ) CD_outData [1] $end
$var wire 1 * CD_outData [0] $end
$var wire 1 + DC_outData [7] $end
$var wire 1 , DC_outData [6] $end
$var wire 1 - DC_outData [5] $end
$var wire 1 . DC_outData [4] $end
$var wire 1 / DC_outData [3] $end
$var wire 1 0 DC_outData [2] $end
$var wire 1 1 DC_outData [1] $end
$var wire 1 2 DC_outData [0] $end
$var wire 1 3 DMX_outData [7] $end
$var wire 1 4 DMX_outData [6] $end
$var wire 1 5 DMX_outData [5] $end
$var wire 1 6 DMX_outData [4] $end
$var wire 1 7 DMX_outData [3] $end
$var wire 1 8 DMX_outData [2] $end
$var wire 1 9 DMX_outData [1] $end
$var wire 1 : DMX_outData [0] $end
$var wire 1 ; MUX_outData $end
$var wire 1 < c_out $end
$var wire 1 = sum [1] $end
$var wire 1 > sum [0] $end

$scope module i1 $end
$var wire 1 ? gnd $end
$var wire 1 @ vcc $end
$var wire 1 A unknown $end
$var tri1 1 B devclrn $end
$var tri1 1 C devpor $end
$var tri1 1 D devoe $end
$var wire 1 E ~QUARTUS_CREATED_GND~I_combout $end
$var wire 1 F ~QUARTUS_CREATED_UNVM~~busy $end
$var wire 1 G ~QUARTUS_CREATED_ADC1~~eoc $end
$var wire 1 H ~QUARTUS_CREATED_ADC2~~eoc $end
$var wire 1 I MUX_outData~output_o $end
$var wire 1 J DMX_outData[0]~output_o $end
$var wire 1 K DMX_outData[1]~output_o $end
$var wire 1 L DMX_outData[2]~output_o $end
$var wire 1 M DMX_outData[3]~output_o $end
$var wire 1 N DMX_outData[4]~output_o $end
$var wire 1 O DMX_outData[5]~output_o $end
$var wire 1 P DMX_outData[6]~output_o $end
$var wire 1 Q DMX_outData[7]~output_o $end
$var wire 1 R CD_outData[0]~output_o $end
$var wire 1 S CD_outData[1]~output_o $end
$var wire 1 T CD_outData[2]~output_o $end
$var wire 1 U DC_outData[0]~output_o $end
$var wire 1 V DC_outData[1]~output_o $end
$var wire 1 W DC_outData[2]~output_o $end
$var wire 1 X DC_outData[3]~output_o $end
$var wire 1 Y DC_outData[4]~output_o $end
$var wire 1 Z DC_outData[5]~output_o $end
$var wire 1 [ DC_outData[6]~output_o $end
$var wire 1 \ DC_outData[7]~output_o $end
$var wire 1 ] sum[0]~output_o $end
$var wire 1 ^ sum[1]~output_o $end
$var wire 1 _ c_out~output_o $end
$var wire 1 ` MUX_inData[2]~input_o $end
$var wire 1 a addr[1]~input_o $end
$var wire 1 b MUX_inData[3]~input_o $end
$var wire 1 c addr[0]~input_o $end
$var wire 1 d MUX_inData[1]~input_o $end
$var wire 1 e MUX_inData[0]~input_o $end
$var wire 1 f mux|Mux0~2_combout $end
$var wire 1 g mux|Mux0~3_combout $end
$var wire 1 h addr[2]~input_o $end
$var wire 1 i MUX_inData[7]~input_o $end
$var wire 1 j MUX_inData[5]~input_o $end
$var wire 1 k MUX_inData[4]~input_o $end
$var wire 1 l MUX_inData[6]~input_o $end
$var wire 1 m mux|Mux0~0_combout $end
$var wire 1 n mux|Mux0~1_combout $end
$var wire 1 o mux|Mux0~4_combout $end
$var wire 1 p DMX_inData~input_o $end
$var wire 1 q dmx|outData[0]~0_combout $end
$var wire 1 r dmx|outData[1]~1_combout $end
$var wire 1 s dmx|outData[2]~2_combout $end
$var wire 1 t dmx|outData[3]~3_combout $end
$var wire 1 u dmx|outData[4]~4_combout $end
$var wire 1 v dmx|outData[5]~5_combout $end
$var wire 1 w dmx|outData[6]~6_combout $end
$var wire 1 x dmx|outData[7]~7_combout $end
$var wire 1 y CD_inData[1]~input_o $end
$var wire 1 z CD_inData[7]~input_o $end
$var wire 1 { CD_inData[5]~input_o $end
$var wire 1 | cd|WideOr6~0_combout $end
$var wire 1 } CD_inData[3]~input_o $end
$var wire 1 ~ CD_inData[6]~input_o $end
$var wire 1 !! CD_inData[4]~input_o $end
$var wire 1 "! CD_inData[2]~input_o $end
$var wire 1 #! CD_inData[0]~input_o $end
$var wire 1 $! cd|WideOr6~1_combout $end
$var wire 1 %! cd|WideOr6~2_combout $end
$var wire 1 &! cd|WideOr0~3_combout $end
$var wire 1 '! cd|WideOr0~2_combout $end
$var wire 1 (! cd|WideOr0~0_combout $end
$var wire 1 )! cd|WideOr0~1_combout $end
$var wire 1 *! cd|WideOr0~4_combout $end
$var wire 1 +! cd|WideOr0~4clkctrl_outclk $end
$var wire 1 ,! cd|WideOr4~1_combout $end
$var wire 1 -! cd|WideOr4~0_combout $end
$var wire 1 .! cd|WideOr4~2_combout $end
$var wire 1 /! cd|WideOr2~0_combout $end
$var wire 1 0! DC_inData[1]~input_o $end
$var wire 1 1! DC_inData[0]~input_o $end
$var wire 1 2! DC_inData[2]~input_o $end
$var wire 1 3! dc|ShiftLeft0~0_combout $end
$var wire 1 4! dc|ShiftLeft0~1_combout $end
$var wire 1 5! dc|ShiftLeft0~2_combout $end
$var wire 1 6! dc|ShiftLeft0~3_combout $end
$var wire 1 7! dc|ShiftLeft0~4_combout $end
$var wire 1 8! dc|ShiftLeft0~5_combout $end
$var wire 1 9! dc|ShiftLeft0~6_combout $end
$var wire 1 :! dc|ShiftLeft0~7_combout $end
$var wire 1 ;! b[0]~input_o $end
$var wire 1 <! a[0]~input_o $end
$var wire 1 =! adder_bit0|sum~0_combout $end
$var wire 1 >! b[1]~input_o $end
$var wire 1 ?! a[1]~input_o $end
$var wire 1 @! adder_bit1|sum~combout $end
$var wire 1 A! adder_bit1|c_out~combout $end
$var wire 1 B! cd|outData [2] $end
$var wire 1 C! cd|outData [1] $end
$var wire 1 D! cd|outData [0] $end
$upscope $end
$upscope $end
$enddefinitions $end
#0
$dumpvars
bx !
b11 "
x#
bx $
bx %
bx &
bx '
x*
x)
x(
02
01
00
1/
0.
0-
0,
0+
x:
x9
x8
x7
x6
x5
x4
x3
x;
x<
x>
x=
0?
1@
xA
1B
1C
1D
0E
zF
zG
zH
xI
xJ
xK
xL
xM
xN
xO
xP
xQ
xR
xS
xT
0U
0V
0W
1X
0Y
0Z
0[
0\
x]
x^
x_
x`
xa
xb
xc
xd
xe
xf
xg
xh
xi
xj
xk
xl
xm
xn
xo
xp
xq
xr
xs
xt
xu
xv
xw
xx
xy
xz
x{
x|
x}
x~
x!!
x"!
x#!
x$!
x%!
x&!
x'!
x(!
x)!
x*!
x+!
x,!
x-!
x.!
x/!
10!
11!
02!
13!
04!
15!
16!
17!
08!
19!
0:!
x;!
x<!
x=!
x>!
x?!
x@!
xA!
xD!
xC!
xB!
$end
#90000
b1 "
b0 "
00!
01!
03!
06!
0X
1U
12
0/
#270000
b100 "
b101 "
12!
11!
13!
18!
1Z
0U
02
1-
#360000
b100 "
01!
07!
08!
0Z
1Y
1.
0-
#450000
b110 "
10!
09!
17!
0Y
1[
1,
0.
#540000
b10 "
b0 "
02!
00!
19!
03!
1U
0[
0,
12
#630000
b1 "
11!
13!
14!
1V
0U
02
11
#720000
b101 "
b111 "
12!
10!
1:!
04!
0V
1\
1+
01
#810000
b101 "
00!
0:!
18!
1Z
0\
0+
1-
#900000
b111 "
10!
1:!
08!
0Z
1\
1+
0-
#990000
b110 "
01!
09!
0:!
0\
1[
1,
0+
